<svg xmlns="http://www.w3.org/2000/svg" width="16.419" height="24.04" viewBox="0 0 16.419 24.04">
  <g id="arrow_icon" data-name="arrow icon" transform="translate(-662.053 -18.755)">
    <path id="Path_981" data-name="Path 981" d="M0-.5V19.952" transform="translate(670.4 39.957) rotate(180)" fill="none" stroke="#72246c" stroke-linecap="round" stroke-linejoin="round" stroke-width="2.5"/>
    <path id="arrow_left" data-name="arrow left" d="M0-1.929v9.11H9.11" transform="translate(665.185 35.949) rotate(-45)" fill="none" stroke="#72246c" stroke-linecap="round" stroke-linejoin="round" stroke-width="2.5"/>
  </g>
</svg>
