{
    "key": "group_593663c73b130",
    "title": "Events",
    "fields": [
        {
            "key": "field_593663db1fa74",
            "label": "Event start date",
            "name": "event_date",
            "type": "date_picker",
            "instructions": "",
            "required": 0,
            "conditional_logic": 0,
            "wrapper": {
                "width": "50",
                "class": "",
                "id": ""
            },
            "display_format": "m\/d\/Y",
            "return_format": "Ymd",
            "first_day": 1
        },
        {
            "key": "field_5ce4114ab1ff2",
            "label": "Event end date",
            "name": "event_end_date",
            "type": "date_picker",
            "instructions": "",
            "required": 0,
            "conditional_logic": 0,
            "wrapper": {
                "width": "50",
                "class": "",
                "id": ""
            },
            "display_format": "m\/d\/Y",
            "return_format": "Ymd",
            "first_day": 1
        }
    ],
    "location": [
        [
            {
                "param": "post_type",
                "operator": "==",
                "value": "events"
            }
        ]
    ],
    "menu_order": 0,
    "position": "normal",
    "style": "default",
    "label_placement": "top",
    "instruction_placement": "label",
    "hide_on_screen": "",
    "active": true,
    "description": ""
}